…
``` r
library(rlang)
```

    ## Warning: package 'rlang' was built under R version 4.0.5

``` r
library(dplyr)
mydata %>%
        group_by(zip_code, offer, channel) %>%
        tally()
```

    ## # A tibble: 27 x 4
    ## # Groups:   zip_code, offer [9]
    ##    zip_code  offer           channel          n
    ##    <chr>     <chr>           <chr>        <int>
    ##  1 Rural     Buy One Get One Multichannel   376
    ##  2 Rural     Buy One Get One Phone         1395
    ##  3 Rural     Buy One Get One Web           1410
    ##  4 Rural     Discount        Multichannel   365
    ##  5 Rural     Discount        Phone         1396
    ##  6 Rural     Discount        Web           1482
    ##  7 Rural     No Offer        Multichannel   389
    ##  8 Rural     No Offer        Phone         1404
    ##  9 Rural     No Offer        Web           1346
    ## 10 Surburban Buy One Get One Multichannel  1153
    ## # ... with 17 more rows
…
